OBJECT Page 25 Customer Ledger Entries
{
  OBJECT-PROPERTIES
  {
    Date=26/09/22;
    Time=12:33:33;
    Modified=Yes;
    Version List=NAVW114.23;
  }
  PROPERTIES
  {
    Permissions=TableData 21=m;
    CaptionML=ENU=Customer Ledger Entries;
    ApplicationArea=#Basic,#Suite;
    InsertAllowed=No;
    DeleteAllowed=No;
    SourceTable=Table21;
    SourceTableView=SORTING(Entry No.)
                    ORDER(Descending);
    DataCaptionFields=Customer No.;
    PageType=List;
    UsageCategory=History;
    PromotedActionCategoriesML=ENU=New,Process,Report,Line,Entry,Navigate;
    OnInit=BEGIN
             AmountVisible := TRUE;
           END;

    OnOpenPage=BEGIN
                 SetControlVisibility;

                 IF (GETFILTERS <> '') AND NOT FIND THEN
                   IF FINDFIRST THEN;
               END;

    OnAfterGetRecord=BEGIN
                       StyleTxt := SetStyle;
                     END;

    OnModifyRecord=BEGIN
                     CODEUNIT.RUN(CODEUNIT::"Cust. Entry-Edit",Rec);
                     EXIT(FALSE);
                   END;

    OnAfterGetCurrRecord=VAR
                           IncomingDocument@1000 : Record 130;
                         BEGIN
                           HasIncomingDocument := IncomingDocument.PostedDocExists("Document No.","Posting Date");
                           CurrPage.IncomingDocAttachFactBox.PAGE.LoadDataFromRecord(Rec);
                           HasDocumentAttachment := HasPostedDocAttachment;
                         END;

    ActionList=ACTIONS
    {
      { 1900000003;0 ;ActionContainer;
                      ActionContainerType=RelatedInformation }
      { 24      ;1   ;ActionGroup;
                      CaptionML=ENU=Ent&ry;
                      Image=Entry }
      { 25      ;2   ;Action    ;
                      CaptionML=ENU=Reminder/Fin. Charge Entries;
                      ToolTipML=ENU=View the reminders and finance charge entries that you have entered for the customer.;
                      ApplicationArea=#Suite;
                      RunObject=Page 444;
                      RunPageView=SORTING(Customer Entry No.);
                      RunPageLink=Customer Entry No.=FIELD(Entry No.);
                      Promoted=Yes;
                      Image=Reminder;
                      PromotedCategory=Category5;
                      Scope=Repeater }
      { 69      ;2   ;Action    ;
                      Name=AppliedEntries;
                      CaptionML=ENU=Applied E&ntries;
                      ToolTipML=ENU=View the ledger entries that have been applied to this record.;
                      ApplicationArea=#Basic,#Suite;
                      RunObject=Page 61;
                      RunPageOnRec=Yes;
                      Promoted=Yes;
                      Image=Approve;
                      PromotedCategory=Category5;
                      Scope=Repeater }
      { 62      ;2   ;Action    ;
                      ShortCutKey=Shift+F7;
                      CaptionML=ENU=Customer;
                      ToolTipML=ENU=View or edit detailed information about the customer.;
                      ApplicationArea=#Basic,#Suite;
                      RunObject=Page 21;
                      RunPageLink=No.=FIELD(Customer No.);
                      Promoted=Yes;
                      Image=Customer;
                      PromotedCategory=Category6 }
      { 51      ;2   ;Action    ;
                      AccessByPermission=TableData 348=R;
                      ShortCutKey=Shift+Ctrl+D;
                      CaptionML=ENU=Dimensions;
                      ToolTipML=ENU=View or edit dimensions, such as area, project, or department, that you can assign to sales and purchase documents to distribute costs and analyze transaction history.;
                      ApplicationArea=#Dimensions;
                      Promoted=Yes;
                      Image=Dimensions;
                      PromotedCategory=Category5;
                      Scope=Repeater;
                      OnAction=BEGIN
                                 ShowDimensions;
                               END;
                                }
      { 32      ;2   ;Action    ;
                      Name=SetDimensionFilter;
                      Ellipsis=Yes;
                      CaptionML=ENU=Set Dimension Filter;
                      ToolTipML=ENU=Limit the entries according to the dimension filters that you specify. NOTE: If you use a high number of dimension combinations, this function may not work and can result in a message that the SQL server only supports a maximum of 2100 parameters.;
                      ApplicationArea=#Dimensions;
                      Promoted=Yes;
                      Image=Filter;
                      PromotedCategory=Category5;
                      OnAction=BEGIN
                                 SETFILTER("Dimension Set ID",DimensionSetIDFilter.LookupFilter);
                               END;
                                }
      { 52      ;2   ;Action    ;
                      ShortCutKey=Ctrl+F7;
                      CaptionML=ENU=Detailed &Ledger Entries;
                      ToolTipML=ENU=View a summary of the all posted entries and adjustments related to a specific customer ledger entry.;
                      ApplicationArea=#Basic,#Suite;
                      RunObject=Page 573;
                      RunPageView=SORTING(Cust. Ledger Entry No.,Posting Date);
                      RunPageLink=Cust. Ledger Entry No.=FIELD(Entry No.),
                                  Customer No.=FIELD(Customer No.);
                      Promoted=Yes;
                      Image=View;
                      PromotedCategory=Category5;
                      Scope=Repeater }
      { 1900000004;0 ;ActionContainer;
                      ActionContainerType=ActionItems }
      { 34      ;1   ;ActionGroup;
                      CaptionML=ENU=F&unctions;
                      Image=Action }
      { 46      ;2   ;Action    ;
                      Name=Create Payment Entry;
                      RunObject=Page 50310;
                      Promoted=Yes;
                      PromotedIsBig=Yes;
                      Image=Payment }
      { 36      ;2   ;Action    ;
                      Name=Apply Entries;
                      ShortCutKey=Shift+F11;
                      CaptionML=ENU=Apply Entries;
                      ToolTipML=ENU=Select one or more ledger entries that you want to apply this record to so that the related posted documents are closed as paid or refunded.;
                      ApplicationArea=#Basic,#Suite;
                      Promoted=Yes;
                      Image=ApplyEntries;
                      PromotedCategory=Process;
                      Scope=Repeater;
                      OnAction=VAR
                                 CustLedgEntry@1000 : Record 21;
                                 CustEntryApplyPostEntries@1001 : Codeunit 226;
                               BEGIN
                                 CustLedgEntry.COPY(Rec);
                                 CustEntryApplyPostEntries.ApplyCustEntryFormEntry(CustLedgEntry);
                                 CustLedgEntry.GET(CustLedgEntry."Entry No.");
                                 Rec := CustLedgEntry;
                                 CurrPage.UPDATE;
                               END;
                                }
      { 64      ;2   ;Action    ;
                      Name=UnapplyEntries;
                      Ellipsis=Yes;
                      CaptionML=ENU=Unapply Entries;
                      ToolTipML=ENU=Unselect one or more ledger entries that you want to unapply this record.;
                      ApplicationArea=#Basic,#Suite;
                      Promoted=Yes;
                      Image=UnApply;
                      PromotedCategory=Process;
                      Scope=Repeater;
                      OnAction=VAR
                                 CustEntryApplyPostedEntries@1000 : Codeunit 226;
                               BEGIN
                                 CustEntryApplyPostedEntries.UnApplyCustLedgEntry("Entry No.");
                               END;
                                }
      { 66      ;2   ;Action    ;
                      Name=ReverseTransaction;
                      Ellipsis=Yes;
                      CaptionML=ENU=Reverse Transaction;
                      ToolTipML=ENU=Reverse an erroneous customer ledger entry.;
                      ApplicationArea=#Basic,#Suite;
                      Promoted=Yes;
                      Image=ReverseRegister;
                      PromotedCategory=Process;
                      Scope=Repeater;
                      OnAction=VAR
                                 ReversalEntry@1000 : Record 179;
                               BEGIN
                                 CLEAR(ReversalEntry);
                                 IF Reversed THEN
                                   ReversalEntry.AlreadyReversedEntry(TABLECAPTION,"Entry No.");
                                 IF "Journal Batch Name" = '' THEN
                                   ReversalEntry.TestFieldError;
                                 TESTFIELD("Transaction No.");
                                 ReversalEntry.ReverseTransaction("Transaction No.");
                               END;
                                }
      { 19      ;2   ;ActionGroup;
                      Name=IncomingDocument;
                      CaptionML=ENU=Incoming Document;
                      ActionContainerType=NewDocumentItems;
                      Image=Documents }
      { 17      ;3   ;Action    ;
                      Name=IncomingDocCard;
                      CaptionML=ENU=View Incoming Document;
                      ToolTipML=ENU=View any incoming document records and file attachments that exist for the entry or document.;
                      ApplicationArea=#Basic,#Suite;
                      Enabled=HasIncomingDocument;
                      Image=ViewOrder;
                      OnAction=VAR
                                 IncomingDocument@1000 : Record 130;
                               BEGIN
                                 IncomingDocument.ShowCard("Document No.","Posting Date");
                               END;
                                }
      { 15      ;3   ;Action    ;
                      Name=SelectIncomingDoc;
                      AccessByPermission=TableData 130=R;
                      CaptionML=ENU=Select Incoming Document;
                      ToolTipML=ENU=Select an incoming document record and file attachment that you want to link to the entry or document.;
                      ApplicationArea=#Basic,#Suite;
                      Enabled=NOT HasIncomingDocument;
                      Image=SelectLineToApply;
                      OnAction=VAR
                                 IncomingDocument@1000 : Record 130;
                               BEGIN
                                 IncomingDocument.SelectIncomingDocumentForPostedDocument("Document No.","Posting Date",RECORDID);
                               END;
                                }
      { 11      ;3   ;Action    ;
                      Name=IncomingDocAttachFile;
                      Ellipsis=Yes;
                      CaptionML=ENU=Create Incoming Document from File;
                      ToolTipML=ENU=Create an incoming document record by selecting a file to attach, and then link the incoming document record to the entry or document.;
                      ApplicationArea=#Basic,#Suite;
                      Enabled=NOT HasIncomingDocument;
                      Image=Attach;
                      OnAction=VAR
                                 IncomingDocumentAttachment@1000 : Record 133;
                               BEGIN
                                 IncomingDocumentAttachment.NewAttachmentFromPostedDocument("Document No.","Posting Date");
                               END;
                                }
      { 37      ;1   ;Action    ;
                      CaptionML=ENU=&Navigate;
                      ToolTipML=ENU=Find all entries and documents that exist for the document number and posting date on the selected entry or document.;
                      ApplicationArea=#Basic,#Suite;
                      Promoted=Yes;
                      Image=Navigate;
                      PromotedCategory=Category5;
                      Scope=Repeater;
                      OnAction=BEGIN
                                 Navigate.SetDoc("Posting Date","Document No.");
                                 Navigate.RUN;
                               END;
                                }
      { 13      ;1   ;Action    ;
                      ShortCutKey=Return;
                      CaptionML=ENU=Show Document;
                      ToolTipML=ENU=Show details for the posted payment, invoice, or credit memo.;
                      ApplicationArea=#Basic,#Suite;
                      Promoted=Yes;
                      PromotedIsBig=Yes;
                      Image=Document;
                      PromotedCategory=Category4;
                      OnAction=BEGIN
                                 ShowDoc
                               END;
                                }
      { 40      ;1   ;Action    ;
                      Name=ShowDocumentAttachment;
                      CaptionML=ENU=Show Document Attachment;
                      ToolTipML=ENU=View documents or images that are attached to the posted invoice or credit memo.;
                      ApplicationArea=#Basic,#Suite;
                      Promoted=Yes;
                      Enabled=HasDocumentAttachment;
                      PromotedIsBig=Yes;
                      Image=Attach;
                      PromotedCategory=Category4;
                      OnAction=BEGIN
                                 ShowPostedDocAttachment;
                               END;
                                }
    }
  }
  CONTROLS
  {
    { 1900000001;0;Container;
                ContainerType=ContentArea }

    { 1   ;1   ;Group     ;
                GroupType=Repeater }

    { 2   ;2   ;Field     ;
                ToolTipML=ENU=Specifies the customer entry's posting date.;
                ApplicationArea=#Basic,#Suite;
                SourceExpr="Posting Date";
                Editable=FALSE }

    { 4   ;2   ;Field     ;
                ToolTipML=ENU=Specifies the document type that the customer entry belongs to.;
                ApplicationArea=#Basic,#Suite;
                SourceExpr="Document Type";
                Editable=FALSE;
                StyleExpr=StyleTxt }

    { 6   ;2   ;Field     ;
                ToolTipML=ENU=Specifies the entry's document number.;
                ApplicationArea=#Basic,#Suite;
                SourceExpr="Document No.";
                Editable=FALSE;
                StyleExpr=StyleTxt }

    { 8   ;2   ;Field     ;
                ToolTipML=ENU=Specifies the customer account number that the entry is linked to.;
                ApplicationArea=#Basic,#Suite;
                SourceExpr="Customer No.";
                Editable=FALSE }

    { 42  ;2   ;Field     ;
                ToolTipML=ENU=Specifies the customer name that the entry is linked to.;
                ApplicationArea=#Basic,#Suite;
                SourceExpr="Customer Name";
                Visible=CustNameVisible;
                Editable=FALSE }

    { 10  ;2   ;Field     ;
                ToolTipML=ENU=Specifies a description of the customer entry.;
                ApplicationArea=#Basic,#Suite;
                SourceExpr=Description;
                Editable=FALSE }

    { 39  ;2   ;Field     ;
                ToolTipML=ENU=Specifies the code for the global dimension that is linked to the record or entry for analysis purposes. Two global dimensions, typically for the company's most important activities, are available on all cards, documents, reports, and lists.;
                ApplicationArea=#Dimensions;
                SourceExpr="Global Dimension 1 Code";
                Visible=FALSE;
                Editable=FALSE }

    { 41  ;2   ;Field     ;
                ToolTipML=ENU=Specifies the code for the global dimension that is linked to the record or entry for analysis purposes. Two global dimensions, typically for the company's most important activities, are available on all cards, documents, reports, and lists.;
                ApplicationArea=#Dimensions;
                SourceExpr="Global Dimension 2 Code";
                Visible=FALSE;
                Editable=FALSE }

    { 67  ;2   ;Field     ;
                ToolTipML=ENU=Specifies the code of the intercompany partner that the transaction is related to if the entry was created from an intercompany transaction.;
                ApplicationArea=#Intercompany;
                SourceExpr="IC Partner Code";
                Visible=FALSE;
                Editable=FALSE }

    { 43  ;2   ;Field     ;
                ToolTipML=ENU=Specifies the code for the salesperson whom the entry is linked to.;
                ApplicationArea=#Suite;
                SourceExpr="Salesperson Code";
                Visible=FALSE;
                Editable=FALSE }

    { 45  ;2   ;Field     ;
                ToolTipML=ENU=Specifies the currency code for the amount on the line.;
                ApplicationArea=#Suite;
                SourceExpr="Currency Code";
                Editable=FALSE }

    { 55  ;2   ;Field     ;
                ToolTipML=ENU=Specifies the amount of the original entry.;
                ApplicationArea=#Basic,#Suite;
                SourceExpr="Original Amount";
                Editable=FALSE }

    { 53  ;2   ;Field     ;
                ToolTipML=ENU=Specifies the amount that the entry originally consisted of, in LCY.;
                ApplicationArea=#Basic,#Suite;
                SourceExpr="Original Amt. (LCY)";
                Visible=FALSE;
                Editable=FALSE }

    { 12  ;2   ;Field     ;
                ToolTipML=ENU=Specifies the amount of the entry.;
                ApplicationArea=#Basic,#Suite;
                SourceExpr=Amount;
                Visible=AmountVisible;
                Editable=FALSE }

    { 47  ;2   ;Field     ;
                ToolTipML=ENU=Specifies the amount of the entry in LCY.;
                ApplicationArea=#Basic,#Suite;
                SourceExpr="Amount (LCY)";
                Visible=AmountVisible;
                Editable=FALSE }

    { 7   ;2   ;Field     ;
                ToolTipML=ENU=Specifies the total of the ledger entries that represent debits.;
                ApplicationArea=#Basic,#Suite;
                SourceExpr="Debit Amount";
                Visible=DebitCreditVisible }

    { 23  ;2   ;Field     ;
                ToolTipML=ENU=Specifies the total of the ledger entries that represent debits, expressed in LCY.;
                ApplicationArea=#Basic,#Suite;
                SourceExpr="Debit Amount (LCY)";
                Visible=DebitCreditVisible }

    { 21  ;2   ;Field     ;
                ToolTipML=ENU=Specifies the total of the ledger entries that represent credits.;
                ApplicationArea=#Basic,#Suite;
                SourceExpr="Credit Amount";
                Visible=DebitCreditVisible }

    { 27  ;2   ;Field     ;
                ToolTipML=ENU=Specifies the total of the ledger entries that represent credits, expressed in LCY.;
                ApplicationArea=#Basic,#Suite;
                SourceExpr="Credit Amount (LCY)";
                Visible=DebitCreditVisible }

    { 14  ;2   ;Field     ;
                ToolTipML=ENU=Specifies the amount that remains to be applied to before the entry has been completely applied.;
                ApplicationArea=#Basic,#Suite;
                SourceExpr="Remaining Amount";
                Editable=FALSE }

    { 49  ;2   ;Field     ;
                ToolTipML=ENU=Specifies the amount that remains to be applied to before the entry is totally applied to.;
                ApplicationArea=#Basic,#Suite;
                SourceExpr="Remaining Amt. (LCY)";
                Editable=FALSE }

    { 29  ;2   ;Field     ;
                ToolTipML=ENU=Specifies the total net amount of sales to the customer in LCY.;
                ApplicationArea=#Suite;
                SourceExpr="Sales (LCY)";
                Visible=FALSE;
                Editable=FALSE }

    { 26  ;2   ;Field     ;
                ToolTipML=ENU=Specifies the type of account that a balancing entry is posted to, such as BANK for a cash account.;
                ApplicationArea=#Basic,#Suite;
                SourceExpr="Bal. Account Type";
                Visible=FALSE;
                Editable=FALSE }

    { 73  ;2   ;Field     ;
                ToolTipML=ENU=Specifies the number of the general ledger, customer, vendor, or bank account that the balancing entry is posted to, such as a cash account for cash purchases.;
                ApplicationArea=#Basic,#Suite;
                SourceExpr="Bal. Account No.";
                Visible=FALSE;
                Editable=FALSE }

    { 16  ;2   ;Field     ;
                ToolTipML=ENU=Specifies the due date on the entry.;
                ApplicationArea=#Basic,#Suite;
                SourceExpr="Due Date";
                StyleExpr=StyleTxt }

    { 18  ;2   ;Field     ;
                ToolTipML=ENU=Specifies the date on which the amount in the entry must be paid for a payment discount to be granted.;
                ApplicationArea=#Basic,#Suite;
                SourceExpr="Pmt. Discount Date" }

    { 59  ;2   ;Field     ;
                ToolTipML=ENU=Specifies the last date the amount in the entry must be paid in order for a payment discount tolerance to be granted.;
                ApplicationArea=#Basic,#Suite;
                SourceExpr="Pmt. Disc. Tolerance Date" }

    { 20  ;2   ;Field     ;
                ToolTipML=ENU=Specifies the discount that the customer can obtain if the entry is applied to before the payment discount date.;
                ApplicationArea=#Basic,#Suite;
                SourceExpr="Original Pmt. Disc. Possible" }

    { 57  ;2   ;Field     ;
                ToolTipML=ENU=Specifies the remaining payment discount which can be received if the payment is made before the payment discount date.;
                ApplicationArea=#Basic,#Suite;
                SourceExpr="Remaining Pmt. Disc. Possible" }

    { 61  ;2   ;Field     ;
                ToolTipML=ENU=Specifies the maximum tolerated amount the entry can differ from the amount on the invoice or credit memo.;
                ApplicationArea=#Basic,#Suite;
                SourceExpr="Max. Payment Tolerance" }

    { 3   ;2   ;Field     ;
                ToolTipML=ENU=Specifies how to make payment, such as with bank transfer, cash, or check.;
                ApplicationArea=#Basic,#Suite;
                SourceExpr="Payment Method Code" }

    { 28  ;2   ;Field     ;
                ToolTipML=ENU=Specifies whether the amount on the entry has been fully paid or there is still a remaining amount that must be applied to.;
                ApplicationArea=#Basic,#Suite;
                SourceExpr=Open;
                Editable=FALSE }

    { 22  ;2   ;Field     ;
                ToolTipML=ENU=Specifies that the related entry represents an unpaid invoice for which either a payment suggestion, a reminder, or a finance charge memo exists.;
                ApplicationArea=#Basic,#Suite;
                SourceExpr="On Hold" }

    { 83  ;2   ;Field     ;
                ToolTipML=ENU=Specifies the ID of the user who posted the entry, to be used, for example, in the change log.;
                ApplicationArea=#Basic,#Suite;
                SourceExpr="User ID";
                Visible=FALSE;
                Editable=FALSE }

    { 85  ;2   ;Field     ;
                ToolTipML=ENU=Specifies the source code that specifies where the entry was created.;
                ApplicationArea=#Suite;
                SourceExpr="Source Code";
                Visible=FALSE;
                Editable=FALSE }

    { 87  ;2   ;Field     ;
                ToolTipML=ENU=Specifies the reason code, a supplementary source code that enables you to trace the entry.;
                ApplicationArea=#Suite;
                SourceExpr="Reason Code";
                Visible=FALSE;
                Editable=FALSE }

    { 35  ;2   ;Field     ;
                ToolTipML=ENU=Specifies if the entry has been part of a reverse transaction.;
                ApplicationArea=#Basic,#Suite;
                SourceExpr=Reversed;
                Visible=FALSE;
                Editable=FALSE }

    { 71  ;2   ;Field     ;
                ToolTipML=ENU=Specifies the number of the correcting entry that replaced the original entry in the reverse transaction.;
                ApplicationArea=#Basic,#Suite;
                SourceExpr="Reversed by Entry No.";
                Visible=FALSE;
                Editable=FALSE }

    { 75  ;2   ;Field     ;
                ToolTipML=ENU=Specifies the number of the original entry that was undone by the reverse transaction.;
                ApplicationArea=#Basic,#Suite;
                SourceExpr="Reversed Entry No.";
                Visible=FALSE;
                Editable=FALSE }

    { 30  ;2   ;Field     ;
                ToolTipML=ENU=Specifies the number of the entry, as assigned from the specified number series when the entry was created.;
                ApplicationArea=#Basic,#Suite;
                SourceExpr="Entry No.";
                Editable=FALSE }

    { 290 ;2   ;Field     ;
                ToolTipML=ENU=Specifies that the entry was created as a result of exporting a payment journal line.;
                ApplicationArea=#Basic,#Suite;
                SourceExpr="Exported to Payment File";
                Editable=TRUE;
                OnValidate=VAR
                             ConfirmManagement@1000 : Codeunit 27;
                           BEGIN
                             IF NOT ConfirmManagement.ConfirmProcess(ExportToPaymentFileConfirmTxt,TRUE) THEN
                               ERROR('');
                           END;
                            }

    { 5   ;2   ;Field     ;
                ToolTipML=ENU=Specifies the message exported to the payment file when you use the Export Payments to File function in the Payment Journal window.;
                ApplicationArea=#Basic,#Suite;
                SourceExpr="Message to Recipient" }

    { 291 ;2   ;Field     ;
                ToolTipML=ENU=Specifies the direct-debit mandate that the customer has signed to allow direct debit collection of payments.;
                ApplicationArea=#Basic,#Suite;
                SourceExpr="Direct Debit Mandate ID";
                Visible=FALSE }

    { 31  ;2   ;Field     ;
                ToolTipML=ENU=Specifies a reference to a combination of dimension values. The actual values are stored in the Dimension Set Entry table.;
                ApplicationArea=#Dimensions;
                SourceExpr="Dimension Set ID";
                Visible=FALSE }

    { 33  ;2   ;Field     ;
                ToolTipML=ENU=Specifies a document number that refers to the customer's or vendor's numbering system.;
                ApplicationArea=#Basic,#Suite;
                SourceExpr="External Document No.";
                Visible=FALSE;
                Editable=FALSE }

    { 44  ;2   ;Field     ;
                Name=RecipientBankAccount;
                ToolTipML=ENU=Specifies the bank account to transfer the amount to.;
                ApplicationArea=#Basic,#Suite;
                SourceExpr="Recipient Bank Account" }

    { 1900000007;0;Container;
                ContainerType=FactBoxArea }

    { 1903096107;1;Part   ;
                ApplicationArea=#Basic,#Suite;
                SubPageLink=Entry No.=FIELD(Entry No.);
                PagePartID=Page9106;
                Visible=TRUE;
                PartType=Page }

    { 9   ;1   ;Part      ;
                Name=IncomingDocAttachFactBox;
                ApplicationArea=#Basic,#Suite;
                PagePartID=Page193;
                PartType=Page;
                ShowFilter=No }

    { 38  ;1   ;Part      ;
                ApplicationArea=#Basic,#Suite;
                SubPageLink=No.=FIELD(Customer No.);
                PagePartID=Page9084;
                PartType=Page }

    { 1900383207;1;Part   ;
                ApplicationArea=#RecordLinks;
                Visible=FALSE;
                PartType=System;
                SystemPartID=RecordLinks }

    { 1905767507;1;Part   ;
                ApplicationArea=#Notes;
                Visible=FALSE;
                PartType=System;
                SystemPartID=Notes }

  }
  CODE
  {
    VAR
      Navigate@1000 : Page 344;
      DimensionSetIDFilter@1002 : Page 481;
      StyleTxt@1001 : Text;
      HasIncomingDocument@1003 : Boolean;
      HasDocumentAttachment@1006 : Boolean;
      AmountVisible@1004 : Boolean;
      DebitCreditVisible@1005 : Boolean;
      CustNameVisible@1007 : Boolean;
      ExportToPaymentFileConfirmTxt@1009 : TextConst 'ENU=Editing the Exported to Payment File field will change the payment suggestions in the Payment Journal. Edit this field only if you must correct a mistake.\Do you want to continue?';

    LOCAL PROCEDURE SetControlVisibility@8();
    VAR
      GLSetup@1000 : Record 98;
      SalesSetup@1001 : Record 311;
    BEGIN
      GLSetup.GET;
      AmountVisible := NOT (GLSetup."Show Amounts" = GLSetup."Show Amounts"::"Debit/Credit Only");
      DebitCreditVisible := NOT (GLSetup."Show Amounts" = GLSetup."Show Amounts"::"Amount Only");
      SalesSetup.GET;
      CustNameVisible := SalesSetup."Copy Customer Name to Entries";
    END;

    BEGIN
    END.
  }
}

